processor.vcd
$date
	Wed Nov 08 23:42:47 2023
$end
$version
	Icarus Verilog
$end
$timescale
	1ps
$end
$scope module processor_tb $end
$var wire 32 ! nextPc_out [31:0] $end
$var wire 32 " data_out [31:0] $end
$var wire 32 # addr_out [31:0] $end
$var reg 1 $ clk_in $end
$var reg 32 % instruction [31:0] $end
$var reg 1 & rst_in $end
$scope module uut $end
$var wire 32 ' addr_out [31:0] $end
$var wire 1 $ clk_100mhz $end
$var wire 32 ( data_out [31:0] $end
$var wire 32 ) instruction [31:0] $end
$var wire 32 * nextPc_out [31:0] $end
$var wire 1 & rst_in $end
$var wire 5 + wa [4:0] $end
$var wire 32 , wd [31:0] $end
$var wire 1 - we $end
$var wire 32 . rval2 [31:0] $end
$var wire 32 / rval1 [31:0] $end
$var wire 5 0 rs2 [4:0] $end
$var wire 5 1 rs1 [4:0] $end
$var wire 32 2 result [31:0] $end
$var wire 5 3 rd [4:0] $end
$var wire 32 4 nextPc [31:0] $end
$var wire 32 5 imm [31:0] $end
$var wire 4 6 iType [3:0] $end
$var wire 3 7 brFunc [2:0] $end
$var wire 4 8 aluFunc [3:0] $end
$var wire 32 9 addr [31:0] $end
$var reg 32 : inst [31:0] $end
$var reg 32 ; pc [31:0] $end
$scope module my_decode $end
$var wire 1 $ clk_in $end
$var wire 32 < instruction_in [31:0] $end
$var wire 7 = opcode [6:0] $end
$var reg 4 > aluFunc_out [3:0] $end
$var reg 3 ? brFunc_out [2:0] $end
$var reg 3 @ funct3 [2:0] $end
$var reg 7 A funct7 [6:0] $end
$var reg 4 B iType_out [3:0] $end
$var reg 32 C imm [31:0] $end
$var reg 32 D imm_out [31:0] $end
$var reg 5 E rd [4:0] $end
$var reg 5 F rd_out [4:0] $end
$var reg 5 G rs1 [4:0] $end
$var reg 5 H rs1_out [4:0] $end
$var reg 5 I rs2 [4:0] $end
$var reg 5 J rs2_out [4:0] $end
$var integer 32 K inst_type [31:0] $end
$upscope $end
$scope module my_execute $end
$var wire 4 L aluFunc_in [3:0] $end
$var wire 32 M alu_rval1 [31:0] $end
$var wire 3 N brFunc_in [2:0] $end
$var wire 4 O iType_in [3:0] $end
$var wire 32 P imm_in [31:0] $end
$var wire 32 Q pc_in [31:0] $end
$var wire 32 R rval2_in [31:0] $end
$var wire 32 S rval1_in [31:0] $end
$var wire 32 T nextPc_default [31:0] $end
$var wire 1 U branch_res $end
$var wire 32 V alu_rval2 [31:0] $end
$var wire 32 W alu_result [31:0] $end
$var wire 32 X addr_out [31:0] $end
$var reg 32 Y data_out [31:0] $end
$var reg 32 Z nextPc_out [31:0] $end
$scope module my_alu $end
$var wire 4 [ aluFunc_in [3:0] $end
$var wire 32 \ rval1_in [31:0] $end
$var wire 32 ] rval1_u [31:0] $end
$var wire 32 ^ rval2_in [31:0] $end
$var wire 32 _ rval2_u [31:0] $end
$var reg 32 ` data_out [31:0] $end
$upscope $end
$scope module my_branchAlu $end
$var wire 3 a brFunc_in [2:0] $end
$var wire 32 b rval1_in [31:0] $end
$var wire 32 c rval1_u [31:0] $end
$var wire 32 d rval2_in [31:0] $end
$var wire 32 e rval2_u [31:0] $end
$var reg 1 U bool_out $end
$upscope $end
$upscope $end
$scope module my_registerfile $end
$var wire 1 $ clk_in $end
$var wire 5 f rs1_in [4:0] $end
$var wire 5 g rs2_in [4:0] $end
$var wire 1 & rst_in $end
$var wire 5 h wa_in [4:0] $end
$var wire 32 i wd_in [31:0] $end
$var wire 1 - we_in $end
$var reg 32 j rd1_out [31:0] $end
$var reg 32 k rd2_out [31:0] $end
$upscope $end
$upscope $end
$scope begin $ivl_for_loop0 $end
$var integer 32 l i [31:0] $end
$upscope $end
$upscope $end
$enddefinitions $end
$comment Show the parameter values. $end
$dumpall
$end
#0
$dumpvars
b0 l
bx k
bx j
b0 i
bx h
bx g
bx f
bx e
bx d
bx c
bx b
bx a
b0 `
bx _
bx ^
bx ]
bx \
bx [
bx Z
b0 Y
bx X
b0 W
bx V
0U
bx T
bx S
bx R
bx Q
b0 P
b0 O
bx N
bx M
bx L
b0 K
bx J
bx I
bx H
bx G
bx F
bx E
b0 D
b0 C
b0 B
bx A
bx @
bx ?
bx >
bx =
bx <
bx ;
bx :
bx 9
bx 8
bx 7
b0 6
b0 5
bx 4
bx 3
b0 2
bx 1
bx 0
bx /
bx .
1-
b0 ,
bx +
bx *
bx )
b0 (
bx '
0&
bx %
0$
bx #
b0 "
bx !
$end
#5000
1$
#10000
0$
1&
#15000
b101101 "
b101101 (
b101101 ,
b101101 i
b101101 2
b101101 Y
b101101 W
b101101 `
b1 _
b1 e
b1 V
b1 ^
b1 d
b101101 #
b101101 '
b101101 9
b101101 X
b101100 ]
b101100 c
b101100 M
b101100 \
b101100 b
b101100 /
b101100 S
b101100 j
b0 8
b0 >
b0 L
b0 [
b1 6
b1 B
b1 O
b1011 +
b1011 h
b1011 3
b1011 F
b0 0
b0 J
b0 g
b1011 1
b1011 H
b1011 f
b1 5
b1 D
b1 P
b1 C
b1011 E
b0 I
b1011 G
b0 A
b0 @
b1 K
b10011 =
b100 !
b100 *
b100 4
b100 Z
b101011000010110010011 :
b101011000010110010011 <
b100 T
b0 ;
b0 Q
1$
#20000
0$
b101011000010110010011 %
b101011000010110010011 )
0&
#25000
b101110 "
b101110 (
b101110 ,
b101110 i
b101110 2
b101110 Y
b101110 W
b101110 `
b101110 #
b101110 '
b101110 9
b101110 X
b101101 ]
b101101 c
b101101 M
b101101 \
b101101 b
b101101 /
b101101 S
b101101 j
b1000 !
b1000 *
b1000 4
b1000 Z
b1000 T
b100 ;
b100 Q
1$
#30000
0$
b1 l
#35000
b101111 "
b101111 (
b101111 ,
b101111 i
b101111 2
b101111 Y
b101111 W
b101111 `
b1100 !
b1100 *
b1100 4
b1100 Z
b101111 #
b101111 '
b101111 9
b101111 X
b101110 ]
b101110 c
b101110 M
b101110 \
b101110 b
b101110 /
b101110 S
b101110 j
b1100 T
b1000 ;
b1000 Q
1$
#40000
0$
b10 l
#45000
b110000 "
b110000 (
b110000 ,
b110000 i
b110000 2
b110000 Y
b110000 W
b110000 `
b110000 #
b110000 '
b110000 9
b110000 X
b101111 ]
b101111 c
b101111 M
b101111 \
b101111 b
b101111 /
b101111 S
b101111 j
b10000 !
b10000 *
b10000 4
b10000 Z
b10000 T
b1100 ;
b1100 Q
1$
#50000
0$
b11 l
#55000
b110001 "
b110001 (
b110001 ,
b110001 i
b110001 2
b110001 Y
b110001 W
b110001 `
b10100 !
b10100 *
b10100 4
b10100 Z
b110001 #
b110001 '
b110001 9
b110001 X
b110000 ]
b110000 c
b110000 M
b110000 \
b110000 b
b110000 /
b110000 S
b110000 j
b10100 T
b10000 ;
b10000 Q
1$
#60000
0$
b100 l
#65000
b110010 "
b110010 (
b110010 ,
b110010 i
b110010 2
b110010 Y
b110010 W
b110010 `
b110010 #
b110010 '
b110010 9
b110010 X
b110001 ]
b110001 c
b110001 M
b110001 \
b110001 b
b110001 /
b110001 S
b110001 j
b11000 !
b11000 *
b11000 4
b11000 Z
b11000 T
b10100 ;
b10100 Q
1$
#70000
0$
b101 l
#75000
b110011 "
b110011 (
b110011 ,
b110011 i
b110011 2
b110011 Y
b110011 W
b110011 `
b11100 !
b11100 *
b11100 4
b11100 Z
b110011 #
b110011 '
b110011 9
b110011 X
b110010 ]
b110010 c
b110010 M
b110010 \
b110010 b
b110010 /
b110010 S
b110010 j
b11100 T
b11000 ;
b11000 Q
1$
#80000
0$
b110 l
#85000
b110100 "
b110100 (
b110100 ,
b110100 i
b110100 2
b110100 Y
b110100 W
b110100 `
b110100 #
b110100 '
b110100 9
b110100 X
b110011 ]
b110011 c
b110011 M
b110011 \
b110011 b
b110011 /
b110011 S
b110011 j
b100000 !
b100000 *
b100000 4
b100000 Z
b100000 T
b11100 ;
b11100 Q
1$
#90000
0$
b111 l
#95000
b110101 "
b110101 (
b110101 ,
b110101 i
b110101 2
b110101 Y
b110101 W
b110101 `
b100100 !
b100100 *
b100100 4
b100100 Z
b110101 #
b110101 '
b110101 9
b110101 X
b110100 ]
b110100 c
b110100 M
b110100 \
b110100 b
b110100 /
b110100 S
b110100 j
b100100 T
b100000 ;
b100000 Q
1$
#100000
0$
b1000 l
#105000
b110110 "
b110110 (
b110110 ,
b110110 i
b110110 2
b110110 Y
b110110 W
b110110 `
b110110 #
b110110 '
b110110 9
b110110 X
b110101 ]
b110101 c
b110101 M
b110101 \
b110101 b
b110101 /
b110101 S
b110101 j
b101000 !
b101000 *
b101000 4
b101000 Z
b101000 T
b100100 ;
b100100 Q
1$
#110000
0$
b1001 l
#115000
b110111 "
b110111 (
b110111 ,
b110111 i
b110111 2
b110111 Y
b110111 W
b110111 `
b101100 !
b101100 *
b101100 4
b101100 Z
b110111 #
b110111 '
b110111 9
b110111 X
b110110 ]
b110110 c
b110110 M
b110110 \
b110110 b
b110110 /
b110110 S
b110110 j
b101100 T
b101000 ;
b101000 Q
1$
#120000
0$
b1010 l
#125000
b111000 "
b111000 (
b111000 ,
b111000 i
b111000 2
b111000 Y
b111000 W
b111000 `
b111000 #
b111000 '
b111000 9
b111000 X
b110111 ]
b110111 c
b110111 M
b110111 \
b110111 b
b110111 /
b110111 S
b110111 j
b110000 !
b110000 *
b110000 4
b110000 Z
b110000 T
b101100 ;
b101100 Q
1$
#130000
0$
b1011 l
#135000
b111001 "
b111001 (
b111001 ,
b111001 i
b111001 2
b111001 Y
b111001 W
b111001 `
b110100 !
b110100 *
b110100 4
b110100 Z
b111001 #
b111001 '
b111001 9
b111001 X
b111000 ]
b111000 c
b111000 M
b111000 \
b111000 b
b111000 /
b111000 S
b111000 j
b110100 T
b110000 ;
b110000 Q
1$
#140000
0$
b1100 l
#145000
b111010 "
b111010 (
b111010 ,
b111010 i
b111010 2
b111010 Y
b111010 W
b111010 `
b111010 #
b111010 '
b111010 9
b111010 X
b111001 ]
b111001 c
b111001 M
b111001 \
b111001 b
b111001 /
b111001 S
b111001 j
b111000 !
b111000 *
b111000 4
b111000 Z
b111000 T
b110100 ;
b110100 Q
1$
#150000
0$
b1101 l
#155000
b111011 "
b111011 (
b111011 ,
b111011 i
b111011 2
b111011 Y
b111011 W
b111011 `
b111100 !
b111100 *
b111100 4
b111100 Z
b111011 #
b111011 '
b111011 9
b111011 X
b111010 ]
b111010 c
b111010 M
b111010 \
b111010 b
b111010 /
b111010 S
b111010 j
b111100 T
b111000 ;
b111000 Q
1$
#160000
0$
b1110 l
#165000
b111100 "
b111100 (
b111100 ,
b111100 i
b111100 2
b111100 Y
b111100 W
b111100 `
b111100 #
b111100 '
b111100 9
b111100 X
b111011 ]
b111011 c
b111011 M
b111011 \
b111011 b
b111011 /
b111011 S
b111011 j
b1000000 !
b1000000 *
b1000000 4
b1000000 Z
b1000000 T
b111100 ;
b111100 Q
1$
#170000
0$
b1111 l
#175000
b111101 "
b111101 (
b111101 ,
b111101 i
b111101 2
b111101 Y
b111101 W
b111101 `
b1000100 !
b1000100 *
b1000100 4
b1000100 Z
b111101 #
b111101 '
b111101 9
b111101 X
b111100 ]
b111100 c
b111100 M
b111100 \
b111100 b
b111100 /
b111100 S
b111100 j
b1000100 T
b1000000 ;
b1000000 Q
1$
#180000
0$
b10000 l
#185000
b111110 "
b111110 (
b111110 ,
b111110 i
b111110 2
b111110 Y
b111110 W
b111110 `
b111110 #
b111110 '
b111110 9
b111110 X
b111101 ]
b111101 c
b111101 M
b111101 \
b111101 b
b111101 /
b111101 S
b111101 j
b1001000 !
b1001000 *
b1001000 4
b1001000 Z
b1001000 T
b1000100 ;
b1000100 Q
1$
#190000
0$
b10001 l
#195000
b111111 "
b111111 (
b111111 ,
b111111 i
b111111 2
b111111 Y
b111111 W
b111111 `
b1001100 !
b1001100 *
b1001100 4
b1001100 Z
b111111 #
b111111 '
b111111 9
b111111 X
b111110 ]
b111110 c
b111110 M
b111110 \
b111110 b
b111110 /
b111110 S
b111110 j
b1001100 T
b1001000 ;
b1001000 Q
1$
#200000
0$
b10010 l
#205000
b1000000 "
b1000000 (
b1000000 ,
b1000000 i
b1000000 2
b1000000 Y
b1000000 W
b1000000 `
b1000000 #
b1000000 '
b1000000 9
b1000000 X
b111111 ]
b111111 c
b111111 M
b111111 \
b111111 b
b111111 /
b111111 S
b111111 j
b1010000 !
b1010000 *
b1010000 4
b1010000 Z
b1010000 T
b1001100 ;
b1001100 Q
1$
#210000
0$
b10011 l
#215000
b1000001 "
b1000001 (
b1000001 ,
b1000001 i
b1000001 2
b1000001 Y
b1000001 W
b1000001 `
b1010100 !
b1010100 *
b1010100 4
b1010100 Z
b1000001 #
b1000001 '
b1000001 9
b1000001 X
b1000000 ]
b1000000 c
b1000000 M
b1000000 \
b1000000 b
b1000000 /
b1000000 S
b1000000 j
b1010100 T
b1010000 ;
b1010000 Q
1$
#220000
0$
b10100 l
#225000
b1000010 "
b1000010 (
b1000010 ,
b1000010 i
b1000010 2
b1000010 Y
b1000010 W
b1000010 `
b1000010 #
b1000010 '
b1000010 9
b1000010 X
b1000001 ]
b1000001 c
b1000001 M
b1000001 \
b1000001 b
b1000001 /
b1000001 S
b1000001 j
b1011000 !
b1011000 *
b1011000 4
b1011000 Z
b1011000 T
b1010100 ;
b1010100 Q
1$
#230000
0$
b10101 l
#235000
b1000011 "
b1000011 (
b1000011 ,
b1000011 i
b1000011 2
b1000011 Y
b1000011 W
b1000011 `
b1011100 !
b1011100 *
b1011100 4
b1011100 Z
b1000011 #
b1000011 '
b1000011 9
b1000011 X
b1000010 ]
b1000010 c
b1000010 M
b1000010 \
b1000010 b
b1000010 /
b1000010 S
b1000010 j
b1011100 T
b1011000 ;
b1011000 Q
1$
#240000
0$
b10110 l
#245000
b1000100 "
b1000100 (
b1000100 ,
b1000100 i
b1000100 2
b1000100 Y
b1000100 W
b1000100 `
b1000100 #
b1000100 '
b1000100 9
b1000100 X
b1000011 ]
b1000011 c
b1000011 M
b1000011 \
b1000011 b
b1000011 /
b1000011 S
b1000011 j
b1100000 !
b1100000 *
b1100000 4
b1100000 Z
b1100000 T
b1011100 ;
b1011100 Q
1$
#250000
0$
b10111 l
#255000
b1000101 "
b1000101 (
b1000101 ,
b1000101 i
b1000101 2
b1000101 Y
b1000101 W
b1000101 `
b1100100 !
b1100100 *
b1100100 4
b1100100 Z
b1000101 #
b1000101 '
b1000101 9
b1000101 X
b1000100 ]
b1000100 c
b1000100 M
b1000100 \
b1000100 b
b1000100 /
b1000100 S
b1000100 j
b1100100 T
b1100000 ;
b1100000 Q
1$
#260000
0$
b11000 l
#265000
b1000110 "
b1000110 (
b1000110 ,
b1000110 i
b1000110 2
b1000110 Y
b1000110 W
b1000110 `
b1000110 #
b1000110 '
b1000110 9
b1000110 X
b1000101 ]
b1000101 c
b1000101 M
b1000101 \
b1000101 b
b1000101 /
b1000101 S
b1000101 j
b1101000 !
b1101000 *
b1101000 4
b1101000 Z
b1101000 T
b1100100 ;
b1100100 Q
1$
#270000
0$
b11001 l
#275000
b1000111 "
b1000111 (
b1000111 ,
b1000111 i
b1000111 2
b1000111 Y
b1000111 W
b1000111 `
b1101100 !
b1101100 *
b1101100 4
b1101100 Z
b1000111 #
b1000111 '
b1000111 9
b1000111 X
b1000110 ]
b1000110 c
b1000110 M
b1000110 \
b1000110 b
b1000110 /
b1000110 S
b1000110 j
b1101100 T
b1101000 ;
b1101000 Q
1$
#280000
0$
b11010 l
#285000
b1001000 "
b1001000 (
b1001000 ,
b1001000 i
b1001000 2
b1001000 Y
b1001000 W
b1001000 `
b1001000 #
b1001000 '
b1001000 9
b1001000 X
b1000111 ]
b1000111 c
b1000111 M
b1000111 \
b1000111 b
b1000111 /
b1000111 S
b1000111 j
b1110000 !
b1110000 *
b1110000 4
b1110000 Z
b1110000 T
b1101100 ;
b1101100 Q
1$
#290000
0$
b11011 l
#295000
b1001001 "
b1001001 (
b1001001 ,
b1001001 i
b1001001 2
b1001001 Y
b1001001 W
b1001001 `
b1110100 !
b1110100 *
b1110100 4
b1110100 Z
b1001001 #
b1001001 '
b1001001 9
b1001001 X
b1001000 ]
b1001000 c
b1001000 M
b1001000 \
b1001000 b
b1001000 /
b1001000 S
b1001000 j
b1110100 T
b1110000 ;
b1110000 Q
1$
#300000
0$
b11100 l
#305000
b1001010 "
b1001010 (
b1001010 ,
b1001010 i
b1001010 2
b1001010 Y
b1001010 W
b1001010 `
b1001010 #
b1001010 '
b1001010 9
b1001010 X
b1001001 ]
b1001001 c
b1001001 M
b1001001 \
b1001001 b
b1001001 /
b1001001 S
b1001001 j
b1111000 !
b1111000 *
b1111000 4
b1111000 Z
b1111000 T
b1110100 ;
b1110100 Q
1$
#310000
0$
b11101 l
#315000
b1001011 "
b1001011 (
b1001011 ,
b1001011 i
b1001011 2
b1001011 Y
b1001011 W
b1001011 `
b1111100 !
b1111100 *
b1111100 4
b1111100 Z
b1001011 #
b1001011 '
b1001011 9
b1001011 X
b1001010 ]
b1001010 c
b1001010 M
b1001010 \
b1001010 b
b1001010 /
b1001010 S
b1001010 j
b1111100 T
b1111000 ;
b1111000 Q
1$
#320000
0$
b11110 l
#325000
b1001100 "
b1001100 (
b1001100 ,
b1001100 i
b1001100 2
b1001100 Y
b1001100 W
b1001100 `
b1001100 #
b1001100 '
b1001100 9
b1001100 X
b1001011 ]
b1001011 c
b1001011 M
b1001011 \
b1001011 b
b1001011 /
b1001011 S
b1001011 j
b10000000 !
b10000000 *
b10000000 4
b10000000 Z
b10000000 T
b1111100 ;
b1111100 Q
1$
#330000
0$
b11111 l
#335000
b1001101 "
b1001101 (
b1001101 ,
b1001101 i
b1001101 2
b1001101 Y
b1001101 W
b1001101 `
b10000100 !
b10000100 *
b10000100 4
b10000100 Z
b1001101 #
b1001101 '
b1001101 9
b1001101 X
b1001100 ]
b1001100 c
b1001100 M
b1001100 \
b1001100 b
b1001100 /
b1001100 S
b1001100 j
b10000100 T
b10000000 ;
b10000000 Q
1$
#340000
0$
b100000 l
#345000
b1001110 "
b1001110 (
b1001110 ,
b1001110 i
b1001110 2
b1001110 Y
b1001110 W
b1001110 `
b1001110 #
b1001110 '
b1001110 9
b1001110 X
b1001101 ]
b1001101 c
b1001101 M
b1001101 \
b1001101 b
b1001101 /
b1001101 S
b1001101 j
b10001000 !
b10001000 *
b10001000 4
b10001000 Z
b10001000 T
b10000100 ;
b10000100 Q
1$
#350000
0$
b100001 l
#355000
b1001111 "
b1001111 (
b1001111 ,
b1001111 i
b1001111 2
b1001111 Y
b1001111 W
b1001111 `
b10001100 !
b10001100 *
b10001100 4
b10001100 Z
b1001111 #
b1001111 '
b1001111 9
b1001111 X
b1001110 ]
b1001110 c
b1001110 M
b1001110 \
b1001110 b
b1001110 /
b1001110 S
b1001110 j
b10001100 T
b10001000 ;
b10001000 Q
1$
#360000
0$
b100010 l
#365000
b1010000 "
b1010000 (
b1010000 ,
b1010000 i
b1010000 2
b1010000 Y
b1010000 W
b1010000 `
b1010000 #
b1010000 '
b1010000 9
b1010000 X
b1001111 ]
b1001111 c
b1001111 M
b1001111 \
b1001111 b
b1001111 /
b1001111 S
b1001111 j
b10010000 !
b10010000 *
b10010000 4
b10010000 Z
b10010000 T
b10001100 ;
b10001100 Q
1$
#370000
0$
b100011 l
#375000
b1010001 "
b1010001 (
b1010001 ,
b1010001 i
b1010001 2
b1010001 Y
b1010001 W
b1010001 `
b10010100 !
b10010100 *
b10010100 4
b10010100 Z
b1010001 #
b1010001 '
b1010001 9
b1010001 X
b1010000 ]
b1010000 c
b1010000 M
b1010000 \
b1010000 b
b1010000 /
b1010000 S
b1010000 j
b10010100 T
b10010000 ;
b10010000 Q
1$
#380000
0$
b100100 l
#385000
b1010010 "
b1010010 (
b1010010 ,
b1010010 i
b1010010 2
b1010010 Y
b1010010 W
b1010010 `
b1010010 #
b1010010 '
b1010010 9
b1010010 X
b1010001 ]
b1010001 c
b1010001 M
b1010001 \
b1010001 b
b1010001 /
b1010001 S
b1010001 j
b10011000 !
b10011000 *
b10011000 4
b10011000 Z
b10011000 T
b10010100 ;
b10010100 Q
1$
#390000
0$
b100101 l
#395000
b1010011 "
b1010011 (
b1010011 ,
b1010011 i
b1010011 2
b1010011 Y
b1010011 W
b1010011 `
b10011100 !
b10011100 *
b10011100 4
b10011100 Z
b1010011 #
b1010011 '
b1010011 9
b1010011 X
b1010010 ]
b1010010 c
b1010010 M
b1010010 \
b1010010 b
b1010010 /
b1010010 S
b1010010 j
b10011100 T
b10011000 ;
b10011000 Q
1$
#400000
0$
b100110 l
#405000
b1010100 "
b1010100 (
b1010100 ,
b1010100 i
b1010100 2
b1010100 Y
b1010100 W
b1010100 `
b1010100 #
b1010100 '
b1010100 9
b1010100 X
b1010011 ]
b1010011 c
b1010011 M
b1010011 \
b1010011 b
b1010011 /
b1010011 S
b1010011 j
b10100000 !
b10100000 *
b10100000 4
b10100000 Z
b10100000 T
b10011100 ;
b10011100 Q
1$
#410000
0$
b100111 l
#415000
b1010101 "
b1010101 (
b1010101 ,
b1010101 i
b1010101 2
b1010101 Y
b1010101 W
b1010101 `
b10100100 !
b10100100 *
b10100100 4
b10100100 Z
b1010101 #
b1010101 '
b1010101 9
b1010101 X
b1010100 ]
b1010100 c
b1010100 M
b1010100 \
b1010100 b
b1010100 /
b1010100 S
b1010100 j
b10100100 T
b10100000 ;
b10100000 Q
1$
#420000
0$
b101000 l
#425000
b1010110 "
b1010110 (
b1010110 ,
b1010110 i
b1010110 2
b1010110 Y
b1010110 W
b1010110 `
b1010110 #
b1010110 '
b1010110 9
b1010110 X
b1010101 ]
b1010101 c
b1010101 M
b1010101 \
b1010101 b
b1010101 /
b1010101 S
b1010101 j
b10101000 !
b10101000 *
b10101000 4
b10101000 Z
b10101000 T
b10100100 ;
b10100100 Q
1$
#430000
0$
b101001 l
#435000
b1010111 "
b1010111 (
b1010111 ,
b1010111 i
b1010111 2
b1010111 Y
b1010111 W
b1010111 `
b10101100 !
b10101100 *
b10101100 4
b10101100 Z
b1010111 #
b1010111 '
b1010111 9
b1010111 X
b1010110 ]
b1010110 c
b1010110 M
b1010110 \
b1010110 b
b1010110 /
b1010110 S
b1010110 j
b10101100 T
b10101000 ;
b10101000 Q
1$
#440000
0$
b101010 l
#445000
b1011000 "
b1011000 (
b1011000 ,
b1011000 i
b1011000 2
b1011000 Y
b1011000 W
b1011000 `
b1011000 #
b1011000 '
b1011000 9
b1011000 X
b1010111 ]
b1010111 c
b1010111 M
b1010111 \
b1010111 b
b1010111 /
b1010111 S
b1010111 j
b10110000 !
b10110000 *
b10110000 4
b10110000 Z
b10110000 T
b10101100 ;
b10101100 Q
1$
#450000
0$
b101011 l
#455000
b1011001 "
b1011001 (
b1011001 ,
b1011001 i
b1011001 2
b1011001 Y
b1011001 W
b1011001 `
b10110100 !
b10110100 *
b10110100 4
b10110100 Z
b1011001 #
b1011001 '
b1011001 9
b1011001 X
b1011000 ]
b1011000 c
b1011000 M
b1011000 \
b1011000 b
b1011000 /
b1011000 S
b1011000 j
b10110100 T
b10110000 ;
b10110000 Q
1$
#460000
0$
b101100 l
#465000
b1011010 "
b1011010 (
b1011010 ,
b1011010 i
b1011010 2
b1011010 Y
b1011010 W
b1011010 `
b1011010 #
b1011010 '
b1011010 9
b1011010 X
b1011001 ]
b1011001 c
b1011001 M
b1011001 \
b1011001 b
b1011001 /
b1011001 S
b1011001 j
b10111000 !
b10111000 *
b10111000 4
b10111000 Z
b10111000 T
b10110100 ;
b10110100 Q
1$
#470000
0$
b101101 l
#475000
b1011011 "
b1011011 (
b1011011 ,
b1011011 i
b1011011 2
b1011011 Y
b1011011 W
b1011011 `
b10111100 !
b10111100 *
b10111100 4
b10111100 Z
b1011011 #
b1011011 '
b1011011 9
b1011011 X
b1011010 ]
b1011010 c
b1011010 M
b1011010 \
b1011010 b
b1011010 /
b1011010 S
b1011010 j
b10111100 T
b10111000 ;
b10111000 Q
1$
#480000
0$
b101110 l
#485000
b1011100 "
b1011100 (
b1011100 ,
b1011100 i
b1011100 2
b1011100 Y
b1011100 W
b1011100 `
b1011100 #
b1011100 '
b1011100 9
b1011100 X
b1011011 ]
b1011011 c
b1011011 M
b1011011 \
b1011011 b
b1011011 /
b1011011 S
b1011011 j
b11000000 !
b11000000 *
b11000000 4
b11000000 Z
b11000000 T
b10111100 ;
b10111100 Q
1$
#490000
0$
b101111 l
#495000
b1011101 "
b1011101 (
b1011101 ,
b1011101 i
b1011101 2
b1011101 Y
b1011101 W
b1011101 `
b11000100 !
b11000100 *
b11000100 4
b11000100 Z
b1011101 #
b1011101 '
b1011101 9
b1011101 X
b1011100 ]
b1011100 c
b1011100 M
b1011100 \
b1011100 b
b1011100 /
b1011100 S
b1011100 j
b11000100 T
b11000000 ;
b11000000 Q
1$
#500000
0$
b110000 l
#505000
b1011110 "
b1011110 (
b1011110 ,
b1011110 i
b1011110 2
b1011110 Y
b1011110 W
b1011110 `
b1011110 #
b1011110 '
b1011110 9
b1011110 X
b1011101 ]
b1011101 c
b1011101 M
b1011101 \
b1011101 b
b1011101 /
b1011101 S
b1011101 j
b11001000 !
b11001000 *
b11001000 4
b11001000 Z
b11001000 T
b11000100 ;
b11000100 Q
1$
#510000
0$
b110001 l
#515000
b1011111 "
b1011111 (
b1011111 ,
b1011111 i
b1011111 2
b1011111 Y
b1011111 W
b1011111 `
b11001100 !
b11001100 *
b11001100 4
b11001100 Z
b1011111 #
b1011111 '
b1011111 9
b1011111 X
b1011110 ]
b1011110 c
b1011110 M
b1011110 \
b1011110 b
b1011110 /
b1011110 S
b1011110 j
b11001100 T
b11001000 ;
b11001000 Q
1$
#520000
0$
b110010 l
#525000
b1100000 "
b1100000 (
b1100000 ,
b1100000 i
b1100000 2
b1100000 Y
b1100000 W
b1100000 `
b1100000 #
b1100000 '
b1100000 9
b1100000 X
b1011111 ]
b1011111 c
b1011111 M
b1011111 \
b1011111 b
b1011111 /
b1011111 S
b1011111 j
b11010000 !
b11010000 *
b11010000 4
b11010000 Z
b11010000 T
b11001100 ;
b11001100 Q
1$
#530000
0$
b110011 l
#535000
b1100001 "
b1100001 (
b1100001 ,
b1100001 i
b1100001 2
b1100001 Y
b1100001 W
b1100001 `
b11010100 !
b11010100 *
b11010100 4
b11010100 Z
b1100001 #
b1100001 '
b1100001 9
b1100001 X
b1100000 ]
b1100000 c
b1100000 M
b1100000 \
b1100000 b
b1100000 /
b1100000 S
b1100000 j
b11010100 T
b11010000 ;
b11010000 Q
1$
#540000
0$
b110100 l
#545000
b1100010 "
b1100010 (
b1100010 ,
b1100010 i
b1100010 2
b1100010 Y
b1100010 W
b1100010 `
b1100010 #
b1100010 '
b1100010 9
b1100010 X
b1100001 ]
b1100001 c
b1100001 M
b1100001 \
b1100001 b
b1100001 /
b1100001 S
b1100001 j
b11011000 !
b11011000 *
b11011000 4
b11011000 Z
b11011000 T
b11010100 ;
b11010100 Q
1$
#550000
0$
b110101 l
#555000
b1100011 "
b1100011 (
b1100011 ,
b1100011 i
b1100011 2
b1100011 Y
b1100011 W
b1100011 `
b11011100 !
b11011100 *
b11011100 4
b11011100 Z
b1100011 #
b1100011 '
b1100011 9
b1100011 X
b1100010 ]
b1100010 c
b1100010 M
b1100010 \
b1100010 b
b1100010 /
b1100010 S
b1100010 j
b11011100 T
b11011000 ;
b11011000 Q
1$
#560000
0$
b110110 l
#565000
b1100100 "
b1100100 (
b1100100 ,
b1100100 i
b1100100 2
b1100100 Y
b1100100 W
b1100100 `
b1100100 #
b1100100 '
b1100100 9
b1100100 X
b1100011 ]
b1100011 c
b1100011 M
b1100011 \
b1100011 b
b1100011 /
b1100011 S
b1100011 j
b11100000 !
b11100000 *
b11100000 4
b11100000 Z
b11100000 T
b11011100 ;
b11011100 Q
1$
#570000
0$
b110111 l
#575000
b1100101 "
b1100101 (
b1100101 ,
b1100101 i
b1100101 2
b1100101 Y
b1100101 W
b1100101 `
b11100100 !
b11100100 *
b11100100 4
b11100100 Z
b1100101 #
b1100101 '
b1100101 9
b1100101 X
b1100100 ]
b1100100 c
b1100100 M
b1100100 \
b1100100 b
b1100100 /
b1100100 S
b1100100 j
b11100100 T
b11100000 ;
b11100000 Q
1$
#580000
0$
b111000 l
#585000
b1100110 "
b1100110 (
b1100110 ,
b1100110 i
b1100110 2
b1100110 Y
b1100110 W
b1100110 `
b1100110 #
b1100110 '
b1100110 9
b1100110 X
b1100101 ]
b1100101 c
b1100101 M
b1100101 \
b1100101 b
b1100101 /
b1100101 S
b1100101 j
b11101000 !
b11101000 *
b11101000 4
b11101000 Z
b11101000 T
b11100100 ;
b11100100 Q
1$
#590000
0$
b111001 l
#595000
b1100111 "
b1100111 (
b1100111 ,
b1100111 i
b1100111 2
b1100111 Y
b1100111 W
b1100111 `
b11101100 !
b11101100 *
b11101100 4
b11101100 Z
b1100111 #
b1100111 '
b1100111 9
b1100111 X
b1100110 ]
b1100110 c
b1100110 M
b1100110 \
b1100110 b
b1100110 /
b1100110 S
b1100110 j
b11101100 T
b11101000 ;
b11101000 Q
1$
#600000
0$
b111010 l
#605000
b1101000 "
b1101000 (
b1101000 ,
b1101000 i
b1101000 2
b1101000 Y
b1101000 W
b1101000 `
b1101000 #
b1101000 '
b1101000 9
b1101000 X
b1100111 ]
b1100111 c
b1100111 M
b1100111 \
b1100111 b
b1100111 /
b1100111 S
b1100111 j
b11110000 !
b11110000 *
b11110000 4
b11110000 Z
b11110000 T
b11101100 ;
b11101100 Q
1$
#610000
0$
b111011 l
